{
  "items": [
    {
      "id": "57706",
      "registrationNumber": "0001",
      "title": "Проект Закону про ратифікацію Угоди між Урядом України та Урядом Сполучених Штатів Америки для поліпшення виконання податкових правил й застосування положень Закону США \"Про податкові вимоги до іноземних рахунків\" (FATCA)",
      "status": "",
      "registrationDate": "09.09.2019",
      "initiativeSubject": "Кабінет Міністрів України",
      "subject": "Кабінет Міністрів України",
      "url": "https://itd.rada.gov.ua/billinfo/Bills/Card/57706"
    },
    {
      "id": "57705",
      "registrationNumber": "0002",
      "title": "Проект Закону про ратифікацію Угоди між Урядом України та Урядом Малайзії про уникнення подвійного оподаткування та запобігання податковим ухиленням стосовно податків на доходи та Протоколу до неї",
      "status": "",
      "registrationDate": "10.09.2019",
      "initiativeSubject": "Кабінет Міністрів України",
      "subject": "Кабінет Міністрів України",
      "url": "https://itd.rada.gov.ua/billinfo/Bills/Card/57705"
    },
    {
      "id": "57704",
      "registrationNumber": "0003",
      "title": "Проект Закону про ратифікацію Протоколу про внесення змін до Конвенції між Урядом України і Урядом Республіки Кіпр про уникнення подвійного оподаткування та запобігання податковим ухиленням стосовно податків на доходи",
      "status": "",
      "registrationDate": "10.09.2019",
      "initiativeSubject": "Кабінет Міністрів України",
      "subject": "Кабінет Міністрів України",
      "url": "https://itd.rada.gov.ua/billinfo/Bills/Card/57704"
    },
    {
      "id": "57703",
      "registrationNumber": "0004",
      "title": "Проект Закону про ратифікацію Протоколу між Урядом України і Швейцарською Федеральною Радою про внесення змін до Конвенції між Урядом України і Швейцарською Федеральною Радою про уникнення подвійного оподаткування стосовно податків на доходи і на капітал та Протоколу до неї, вчинених у м. Києві 30 жовтня 2000 року",
      "status": "",
      "registrationDate": "10.09.2019",
      "initiativeSubject": "Кабінет Міністрів України",
      "subject": "Кабінет Міністрів України",
      "url": "https://itd.rada.gov.ua/billinfo/Bills/Card/57703"
    },
    {
      "id": "58106",
      "registrationNumber": "0005",
      "title": "Проект Закону про ратифікацію Протоколу між Урядом України і Урядом Турецької Республіки про внесення змін до Угоди між Урядом України і Урядом Турецької Республіки про уникнення подвійного оподаткування та попередження податкових ухилень стосовно податків на доходи і майно",
      "status": "",
      "registrationDate": "10.09.2019",
      "initiativeSubject": "Кабінет Міністрів України",
      "subject": "Кабінет Міністрів України",
      "url": "https://itd.rada.gov.ua/billinfo/Bills/Card/58106"
    },
    {
      "id": "58107",
      "registrationNumber": "0006",
      "title": "Проект Закону про ратифікацію Протоколу між Урядом України і Урядом Сполученого Королівства Великої Британії та Північної Ірландії про внесення змін до Конвенції між Урядом України і Урядом Сполученого Королівства Великобританії і Північної Ірландії про усунення подвійного оподаткування та запобігання податковим ухиленням стосовно податків на доход і на приріст вартості майна, вчиненої у Лондоні 10 лютого 1993 року",
      "status": "",
      "registrationDate": "10.09.2019",
      "initiativeSubject": "Кабінет Міністрів України",
      "subject": "Кабінет Міністрів України",
      "url": "https://itd.rada.gov.ua/billinfo/Bills/Card/58107"
    },
    {
      "id": "58411",
      "registrationNumber": "0007",
      "title": "Проект Закону про ратифікацію Угоди (у формі обміну нотами) між Україною та Королівством Нідерланди про продовження до 1 серпня 2020 року строку дії Угоди між Україною та Королівством Нідерланди про Міжнародну місію захисту розслідування від 28 липня 2014 року",
      "status": "",
      "registrationDate": "13.11.2019",
      "initiativeSubject": "Президент України",
      "subject": "Президент України",
      "url": "https://itd.rada.gov.ua/billinfo/Bills/Card/58411"
    },
    {
      "id": "58412",
      "registrationNumber": "0008",
      "title": "Проект Закону про ратифікацію Фінансової угоди (Проект \"Розширення харківського метрополітену\" (Проект \"Подовження третьої лінії метрополітену у місті Харків\") між Україною та Європейським інвестиційним банком",
      "status": "",
      "registrationDate": "13.11.2019",
      "initiativeSubject": "Президент України",
      "subject": "Президент України",
      "url": "https://itd.rada.gov.ua/billinfo/Bills/Card/58412"
    },
    {
      "id": "58448",
      "registrationNumber": "0009",
      "title": "Проект Закону про ратифікацію Угоди у формі обміну листами між Україною та Європейським Союзом про внесення змін до торговельних преференцій щодо м'яса птиці та переробленого м'яса птиці, передбачених Угодою про асоціацію між Україною, з однієї сторони, та Європейським Союзом, Європейським співтовариством з атомної енергії і їхніми державами-членами, з іншої сторони",
      "status": "",
      "registrationDate": "15.11.2019",
      "initiativeSubject": "Президент України",
      "subject": "Президент України",
      "url": "https://itd.rada.gov.ua/billinfo/Bills/Card/58448"
    },
    {
      "id": "736",
      "registrationNumber": "0010",
      "title": "Проект Закону про приєднання до Угоди про розвиток мультимодальних перевезень ТРАСЕКА",
      "status": "",
      "registrationDate": "21.11.2019",
      "initiativeSubject": "Кабінет Міністрів України",
      "subject": "Кабінет Міністрів України",
      "url": "https://itd.rada.gov.ua/billinfo/Bills/Card/736"
    },
    {
      "id": "58475",
      "registrationNumber": "0011",
      "title": "Проект Закону про ратифікацію Гарантійної угоди (Проект електрифікації української залізниці \"Електрифікація залізничного напрямку Долинська - Миколаїв - Колосівка\") між Україною та Європейським банком реконструкції та розвитку",
      "status": "",
      "registrationDate": "28.11.2019",
      "initiativeSubject": "Президент України",
      "subject": "Президент України",
      "url": "https://itd.rada.gov.ua/billinfo/Bills/Card/58475"
    },
    {
      "id": "58476",
      "registrationNumber": "0012",
      "title": "Проект Закону про ратифікацію Угоди (у формі обміну нотами) між Урядом України та Урядом Федеративної Республіки Німеччина про створення місцевих бюро Німецького товариства міжнародного співробітництва ҐмбГ (GIZ GmbH) та Кредитної установи для відбудови (KfW)",
      "status": "",
      "registrationDate": "02.12.2019",
      "initiativeSubject": "Кабінет Міністрів України",
      "subject": "Кабінет Міністрів України",
      "url": "https://itd.rada.gov.ua/billinfo/Bills/Card/58476"
    },
    {
      "id": "58484",
      "registrationNumber": "0013",
      "title": "Проект Закону про приєднання України до Європейського фонду підтримки спільного виробництва та розповсюдження художніх кінематографічних та аудіовізуальних творів (\"EURIMAGES\")",
      "status": "",
      "registrationDate": "05.12.2019",
      "initiativeSubject": "Президент України",
      "subject": "Президент України",
      "url": "https://itd.rada.gov.ua/billinfo/Bills/Card/58484"
    },
    {
      "id": "58502",
      "registrationNumber": "0014",
      "title": "Проект Закону про ратифікацію Фінансової угоди (Проект \"Підвищення безпеки автомобільних доріг в містах України\") між Україною та Європейськім інвестиційним банком",
      "status": "",
      "registrationDate": "13.12.2019",
      "initiativeSubject": "Президент України",
      "subject": "Президент України",
      "url": "https://itd.rada.gov.ua/billinfo/Bills/Card/58502"
    },
    {
      "id": "58504",
      "registrationNumber": "0015",
      "title": "Проект Закону про ратифікацію Грантової угоди (Проект \"Миколаївводоканал\" (Розвиток системи водопостачання та водовідведення в місті Миколаїв) за Програмою \"E5P\" між Україною та Європейським інвестиційним банком",
      "status": "",
      "registrationDate": "13.12.2019",
      "initiativeSubject": "Президент України",
      "subject": "Президент України",
      "url": "https://itd.rada.gov.ua/billinfo/Bills/Card/58504"
    },
    {
      "id": "58526",
      "registrationNumber": "0016",
      "title": "Проект Закону про ратифікацію Протоколу про внесення змін до Угоди між Урядом України і Урядом Республіки Сінгапур про уникнення подвійного оподаткування та запобігання податковим ухиленням стосовно податків на доходи",
      "status": "",
      "registrationDate": "16.12.2019",
      "initiativeSubject": "Кабінет Міністрів України",
      "subject": "Кабінет Міністрів України",
      "url": "https://itd.rada.gov.ua/billinfo/Bills/Card/58526"
    },
    {
      "id": "58527",
      "registrationNumber": "0017",
      "title": "Проект Закону про ратифікацію Протоколу між Урядом України та Урядом Грузії про внесення змін до Угоди між Урядом України та Урядом Республіки Грузія про вільну торгівлю від 9 січня 1995 року",
      "status": "",
      "registrationDate": "16.12.2019",
      "initiativeSubject": "Кабінет Міністрів України",
      "subject": "Кабінет Міністрів України",
      "url": "https://itd.rada.gov.ua/billinfo/Bills/Card/58527"
    },
    {
      "id": "58528",
      "registrationNumber": "0018",
      "title": "Проект Закону про ратифікацію Угоди про співробітництво у сфері розвитку між Урядом України та Урядом Турецької Республіки",
      "status": "",
      "registrationDate": "16.12.2019",
      "initiativeSubject": "Кабінет Міністрів України",
      "subject": "Кабінет Міністрів України",
      "url": "https://itd.rada.gov.ua/billinfo/Bills/Card/58528"
    },
    {
      "id": "626",
      "registrationNumber": "0019",
      "title": "Проект Закону про ратифікацію Рамкової угоди між Урядом України та Урядом Королівства Данія щодо загальних умов та процедур, організаційних заходів та фінансових умов реалізації програми Danida Business Finance в Україні",
      "status": "",
      "registrationDate": "16.12.2019",
      "initiativeSubject": "Кабінет Міністрів України",
      "subject": "Кабінет Міністрів України",
      "url": "https://itd.rada.gov.ua/billinfo/Bills/Card/626"
    },
    {
      "id": "58533",
      "registrationNumber": "0020",
      "title": "Проект Закону про ратифікацію Договору між Україною та Федеративною Республікою Бразилія про взаємну правову допомогу та правові відносини у цивільних справах",
      "status": "",
      "registrationDate": "18.12.2019",
      "initiativeSubject": "Президент України",
      "subject": "Президент України",
      "url": "https://itd.rada.gov.ua/billinfo/Bills/Card/58533"
    },
    {
      "id": "58542",
      "registrationNumber": "0021",
      "title": "Проект Закону про ратифікацію Угоди між Кабінетом Міністрів України та Урядом Литовської Республіки про працевлаштування та співробітництво у сфері трудової міграції",
      "status": "",
      "registrationDate": "20.12.2019",
      "initiativeSubject": "Кабінет Міністрів України",
      "subject": "Кабінет Міністрів України",
      "url": "https://itd.rada.gov.ua/billinfo/Bills/Card/58542"
    },
    {
      "id": "71",
      "registrationNumber": "0022",
      "title": "Проект Закону про ратифікацію Договору між Україною та Аргентинською Республікою про видачу правопорушників",
      "status": "",
      "registrationDate": "26.12.2019",
      "initiativeSubject": "Президент України",
      "subject": "Президент України",
      "url": "https://itd.rada.gov.ua/billinfo/Bills/Card/71"
    },
    {
      "id": "75",
      "registrationNumber": "0023",
      "title": "Проект Закону про ратифікацію Договору між Україною та Аргентинською Республікою про передачу засуджених осіб",
      "status": "",
      "registrationDate": "26.12.2019",
      "initiativeSubject": "Президент України",
      "subject": "Президент України",
      "url": "https://itd.rada.gov.ua/billinfo/Bills/Card/75"
    },
    {
      "id": "76",
      "registrationNumber": "0024",
      "title": "Проект Закону про ратифікацію Договору між Україною та Аргентинською Республікою про взаємну правову допомогу у кримінальних справах",
      "status": "",
      "registrationDate": "26.12.2019",
      "initiativeSubject": "Президент України",
      "subject": "Президент України",
      "url": "https://itd.rada.gov.ua/billinfo/Bills/Card/76"
    },
    {
      "id": "738",
      "registrationNumber": "0025",
      "title": "Проект Закону про ратифікацію Рамкового договору між Урядом України та Урядом Французької Республіки щодо офіційної підтримки посилення морської безпеки та охорони України",
      "status": "",
      "registrationDate": "27.12.2019",
      "initiativeSubject": "Кабінет Міністрів України",
      "subject": "Кабінет Міністрів України",
      "url": "https://itd.rada.gov.ua/billinfo/Bills/Card/738"
    },
    {
      "id": "577",
      "registrationNumber": "0026",
      "title": "Проект Закону про ратифікацію Угоди (у формі обміну листами) між Урядом України та Організацією економічного співробітництва та розвитку щодо приєднання до Декларації про міжнародні інвестиції і багатонаціональні підприємства, відповідних Рекомендацій та процедурних Рішень Ради Організації економічного співробітництва та розвитку",
      "status": "",
      "registrationDate": "27.12.2019",
      "initiativeSubject": "Кабінет Міністрів України",
      "subject": "Кабінет Міністрів України",
      "url": "https://itd.rada.gov.ua/billinfo/Bills/Card/577"
    },
    {
      "id": "739",
      "registrationNumber": "0027",
      "title": "Проект Закону про ратифікацію Угоди про спільне виробництво аудіовізуальних творів між Кабінетом Міністрів України та Урядом Канади",
      "status": "",
      "registrationDate": "28.12.2019",
      "initiativeSubject": "Кабінет Міністрів України",
      "subject": "Кабінет Міністрів України",
      "url": "https://itd.rada.gov.ua/billinfo/Bills/Card/739"
    },
    {
      "id": "1146",
      "registrationNumber": "0028",
      "title": "Проект Закону про ратифікацію Листа про внесення змін № 3 до Фінансової угоди між Україною та Європейським інвестиційним банком (Розвиток системи водопостачання та водовідведення в місті Миколаїв)",
      "status": "",
      "registrationDate": "13.01.2020",
      "initiativeSubject": "Президент України",
      "subject": "Президент України",
      "url": "https://itd.rada.gov.ua/billinfo/Bills/Card/1146"
    },
    {
      "id": "1147",
      "registrationNumber": "0029",
      "title": "Проект Закону про приєднання України до Схеми сортової сертифікації насіння хрестоцвітих та інших олійних або прядивних культур та Схеми сортової сертифікації насіння цукрового та кормового буряка Організації економічного співробітництва та розвитку",
      "status": "",
      "registrationDate": "14.01.2020",
      "initiativeSubject": "Президент України",
      "subject": "Президент України",
      "url": "https://itd.rada.gov.ua/billinfo/Bills/Card/1147"
    },
    {
      "id": "1148",
      "registrationNumber": "0030",
      "title": "Проект Закону про ратифікацію Договору між Україною та Республікою Казахстан про екстрадицію",
      "status": "",
      "registrationDate": "16.01.2020",
      "initiativeSubject": "Президент України",
      "subject": "Президент України",
      "url": "https://itd.rada.gov.ua/billinfo/Bills/Card/1148"
    }
  ],
  "count": 14891,
  "page": 1,
  "perPage": 30,
  "totalPages": 497
}
